<?xml version="1.0" encoding="UTF-8"?>
<svg width="20px" height="20px" viewBox="0 0 20 20" version="1.1" xmlns="http://www.w3.org/2000/svg" xmlns:xlink="http://www.w3.org/1999/xlink">
    <!-- Generator: Sketch 52.5 (67469) - http://www.bohemiancoding.com/sketch -->
    <title>element-desktop-logo</title>
    <desc>Created with Sketch.</desc>
    <g id="element-desktop-logo" stroke="none" stroke-width="1" fill="none" fill-rule="evenodd">
        <g id="logo" transform="translate(4.000000, 4.000000)">
            <path d="M10,5.00000633 C10,7.76282562 7.76000114,10 5,10 C2.2399859,10 0,7.76282562 0,5.00000633 C0,2.23718704 2.2399859,0 5,0 C7.76000114,0 10,2.23718704 10,5.00000633 Z" id="Path" stroke="#E3E3EC" stroke-width="0.5" fill="#FFFFFF"></path>
            <circle id="Oval" fill="#EB5757" cx="10" cy="9" r="3"></circle>
            <path d="M3,7 L4.9999971,7 C6.89473883,7 8,5.92857046 8,4.48570519 C8,3.02856534 6.90977531,2 5.03007006,2 L3,2 L3,7 Z M4.45864025,5.77142873 L4.45864025,3.21428321 L5.05263204,3.21428321 C5.92480599,3.21428321 6.5037613,3.69285921 6.5037613,4.49285597 C6.5037613,5.31427808 5.92480599,5.77142873 5.05263204,5.77142873 L4.45864025,5.77142873 Z" id="Shape" fill="#1F1F24" fill-rule="nonzero"></path>
            <path d="M9,10 L10.153345,10 C10.6868914,10 11,9.79142182 11,9.44856662 C11,9.17143327 10.82747,9.03428892 10.5559021,8.95428711 C10.7539907,8.87714129 10.9009493,8.73999694 10.9009493,8.50857081 C10.9009493,8.36571448 10.8466357,8.25999739 10.7571871,8.17999558 C10.6261979,8.06285452 10.4281093,8 10.146965,8 L9,8 L9,10 Z M9.60382927,9.55428371 L9.60382927,9.18571323 L10.0766693,9.18571323 C10.2843343,9.18571323 10.3801886,9.25714707 10.3801886,9.36570881 C10.3801886,9.48857319 10.2715614,9.55428371 10.0830621,9.55428371 L9.60382927,9.55428371 Z M9.60382927,8.79713947 L9.60382927,8.44571629 L10.0063864,8.44571629 C10.1916893,8.44571629 10.2875307,8.50857081 10.2875307,8.61714389 C10.2875307,8.73999694 10.1821,8.79713947 9.99360069,8.79713947 L9.60382927,8.79713947 Z" id="Shape" fill="#FFFFFF" fill-rule="nonzero"></path>
        </g>
    </g>
</svg>